{
  "_class": "group",
  "do_objectID": "AFC32A72-A307-4B30-AADE-4028D2FDA856",
  "exportOptions": {
    "_class": "exportOptions",
    "exportFormats": [
    ],
    "includedLayerIds": [
    ],
    "layerOptions": 0,
    "shouldTrim": false
  },
  "frame": {
    "_class": "rect",
    "constrainProportions": false,
    "height": 51,
    "width": 412,
    "x": 0,
    "y": 0
  },
  "hasClickThrough": false,
  "isFlippedHorizontal": false,
  "isFlippedVertical": false,
  "isLocked": false,
  "isVisible": true,
  "layerListExpandedType": 2,
  "layers": [
    {
      "class": "group",
      "id": "144C14FF-7C6F-4FCE-9291-304BE140B92B"
    },
    {
      "class": "group",
      "id": "28118978-3F3D-456D-8481-32AC792C3BC8"
    },
    {
      "class": "group",
      "id": "5C50F7A8-8869-4212-834D-79534211483F"
    },
    {
      "class": "group",
      "id": "37EEA767-1887-4B78-9D55-E6110EBF6192"
    }
  ],
  "name": "tabs",
  "nameIsFixed": true,
  "resizingConstraint": 41,
  "resizingType": 1,
  "rotation": 0,
  "shouldBreakMaskChain": false,
  "style": {
    "_class": "style",
    "endDecorationType": 0,
    "miterLimit": 10,
    "startDecorationType": 0
  }
}