{
  "_class": "group",
  "do_objectID": "6226D217-2490-486E-B60F-11150615C743",
  "exportOptions": {
    "_class": "exportOptions",
    "exportFormats": [
    ],
    "includedLayerIds": [
    ],
    "layerOptions": 0,
    "shouldTrim": false
  },
  "frame": {
    "_class": "rect",
    "constrainProportions": false,
    "height": 26,
    "width": 755,
    "x": 1250,
    "y": 195
  },
  "hasClickThrough": false,
  "isFlippedHorizontal": false,
  "isFlippedVertical": false,
  "isLocked": false,
  "isVisible": true,
  "layerListExpandedType": 1,
  "layers": [
    {
      "class": "group",
      "id": "CE5C198A-77CF-4AB0-8D96-382EA2F0EA8E"
    },
    {
      "class": "text",
      "id": "8A071274-BB21-4BE2-AEAA-886978A8EE9D"
    }
  ],
  "name": "milestone copy 2",
  "nameIsFixed": true,
  "resizingConstraint": 63,
  "resizingType": 0,
  "rotation": 0,
  "shouldBreakMaskChain": false,
  "style": {
    "_class": "style",
    "endDecorationType": 0,
    "miterLimit": 10,
    "startDecorationType": 0
  }
}