{
  "_class": "shapePath",
  "booleanOperation": -1,
  "do_objectID": "703B059C-3A49-4607-8914-F3B61FD2BEDA",
  "edited": true,
  "exportOptions": {
    "_class": "exportOptions",
    "exportFormats": [
    ],
    "includedLayerIds": [
    ],
    "layerOptions": 0,
    "shouldTrim": false
  },
  "frame": {
    "_class": "rect",
    "constrainProportions": false,
    "height": 3.857142857142858,
    "width": 3.857142857143117,
    "x": 0,
    "y": 0
  },
  "isFlippedHorizontal": false,
  "isFlippedVertical": false,
  "isLocked": false,
  "isVisible": true,
  "layerListExpandedType": 0,
  "name": "Path",
  "nameIsFixed": false,
  "path": {
    "_class": "path",
    "isClosed": true,
    "pointRadiusBehaviour": 0,
    "points": [
      {
        "_class": "curvePoint",
        "cornerRadius": 0,
        "curveFrom": "{1, 0.25000000000000022}",
        "curveMode": 4,
        "curveTo": "{1, 0.18055520833333299}",
        "hasCurveFrom": false,
        "hasCurveTo": true,
        "point": "{1, 0.25000000000000022}"
      },
      {
        "_class": "curvePoint",
        "cornerRadius": 0,
        "curveFrom": "{1, 0.81944479166666695}",
        "curveMode": 4,
        "curveTo": "{1, 0.75000000000000022}",
        "hasCurveFrom": true,
        "hasCurveTo": false,
        "point": "{1, 0.75000000000000022}"
      },
      {
        "_class": "curvePoint",
        "cornerRadius": 0,
        "curveFrom": "{0.87847197916659259, 0.97569468749999988}",
        "curveMode": 2,
        "curveTo": "{0.97569468749996602, 0.87847197916666686}",
        "hasCurveFrom": true,
        "hasCurveTo": true,
        "point": "{0.92708333333333826, 0.92708333333333337}"
      },
      {
        "_class": "curvePoint",
        "cornerRadius": 0,
        "curveFrom": "{0.75, 1}",
        "curveMode": 4,
        "curveTo": "{0.81944479166666162, 1}",
        "hasCurveFrom": false,
        "hasCurveTo": true,
        "point": "{0.75, 1}"
      },
      {
        "_class": "curvePoint",
        "cornerRadius": 0,
        "curveFrom": "{0.18055520833333835, 1}",
        "curveMode": 4,
        "curveTo": "{0.25, 1}",
        "hasCurveFrom": true,
        "hasCurveTo": false,
        "point": "{0.25, 1}"
      },
      {
        "_class": "curvePoint",
        "cornerRadius": 0,
        "curveFrom": "{0.024305312500033979, 0.87847197916666686}",
        "curveMode": 2,
        "curveTo": "{0.12152802083340743, 0.97569468749999988}",
        "hasCurveFrom": true,
        "hasCurveTo": true,
        "point": "{0.072916666666661759, 0.92708333333333337}"
      },
      {
        "_class": "curvePoint",
        "cornerRadius": 0,
        "curveFrom": "{0, 0.75000000000000022}",
        "curveMode": 4,
        "curveTo": "{0, 0.81944479166666695}",
        "hasCurveFrom": false,
        "hasCurveTo": true,
        "point": "{0, 0.75000000000000022}"
      },
      {
        "_class": "curvePoint",
        "cornerRadius": 0,
        "curveFrom": "{0, 0.18055520833333299}",
        "curveMode": 4,
        "curveTo": "{0, 0.25000000000000022}",
        "hasCurveFrom": true,
        "hasCurveTo": false,
        "point": "{0, 0.25000000000000022}"
      },
      {
        "_class": "curvePoint",
        "cornerRadius": 0,
        "curveFrom": "{0.12152802083340743, 0.02430531249999969}",
        "curveMode": 2,
        "curveTo": "{0.024305312500033979, 0.12152802083333362}",
        "hasCurveFrom": true,
        "hasCurveTo": true,
        "point": "{0.072916666666661759, 0.072916666666666657}"
      },
      {
        "_class": "curvePoint",
        "cornerRadius": 0,
        "curveFrom": "{0.25, 0}",
        "curveMode": 4,
        "curveTo": "{0.18055520833333835, 0}",
        "hasCurveFrom": false,
        "hasCurveTo": true,
        "point": "{0.25, 0}"
      },
      {
        "_class": "curvePoint",
        "cornerRadius": 0,
        "curveFrom": "{0.81944479166666162, 0}",
        "curveMode": 4,
        "curveTo": "{0.75, 0}",
        "hasCurveFrom": true,
        "hasCurveTo": false,
        "point": "{0.75, 0}"
      },
      {
        "_class": "curvePoint",
        "cornerRadius": 0,
        "curveFrom": "{0.97569468749996602, 0.12152802083333362}",
        "curveMode": 2,
        "curveTo": "{0.87847197916659259, 0.02430531249999969}",
        "hasCurveFrom": true,
        "hasCurveTo": true,
        "point": "{0.92708333333333826, 0.072916666666666657}"
      }
    ]
  },
  "resizingConstraint": 63,
  "resizingType": 0,
  "rotation": 0,
  "shouldBreakMaskChain": false
}