{
  "_class": "group",
  "do_objectID": "8305A6CB-0214-41AE-AEB5-FF832F2F9761",
  "exportOptions": {
    "_class": "exportOptions",
    "exportFormats": [
    ],
    "includedLayerIds": [
    ],
    "layerOptions": 0,
    "shouldTrim": false
  },
  "frame": {
    "_class": "rect",
    "constrainProportions": false,
    "height": 28,
    "width": 456,
    "x": 607,
    "y": 462
  },
  "hasClickThrough": false,
  "isFlippedHorizontal": false,
  "isFlippedVertical": false,
  "isLocked": false,
  "isVisible": true,
  "layerListExpandedType": 2,
  "layers": [
    {
      "class": "shapeGroup",
      "id": "66643410-4B1A-45A2-A4FD-5C1D7CE815C1"
    },
    {
      "class": "shapeGroup",
      "id": "510AFC37-A52F-45D1-A2A7-9F62429A9BF7"
    },
    {
      "class": "shapeGroup",
      "id": "7F3F6ED7-A3CD-462C-9E07-CD6CC39DF4EC"
    },
    {
      "class": "text",
      "id": "64F78D8F-D44A-4334-A999-A835BACEA0AB"
    }
  ],
  "name": "new_epic copy 5",
  "nameIsFixed": true,
  "resizingConstraint": 63,
  "resizingType": 0,
  "rotation": 0,
  "shouldBreakMaskChain": false,
  "style": {
    "_class": "style",
    "endDecorationType": 0,
    "miterLimit": 10,
    "startDecorationType": 0
  }
}