{
  "_class": "group",
  "do_objectID": "F5254609-3476-496A-84FE-989765601C7A",
  "exportOptions": {
    "_class": "exportOptions",
    "exportFormats": [
    ],
    "includedLayerIds": [
    ],
    "layerOptions": 0,
    "shouldTrim": false
  },
  "frame": {
    "_class": "rect",
    "constrainProportions": false,
    "height": 32,
    "width": 74,
    "x": 361,
    "y": 112
  },
  "hasClickThrough": false,
  "isFlippedHorizontal": false,
  "isFlippedVertical": false,
  "isLocked": false,
  "isVisible": true,
  "layerListExpandedType": 1,
  "layers": [
    {
      "class": "shapeGroup",
      "id": "FAAFBE44-ADD3-4EE3-9A94-822F4B015B13"
    },
    {
      "class": "text",
      "id": "8AE6B2D2-8137-4FC0-963A-6E3A03EAF4AC"
    }
  ],
  "name": "global-components/buttons/variations/group/middle copy",
  "nameIsFixed": false,
  "resizingConstraint": 63,
  "resizingType": 0,
  "rotation": 0,
  "shouldBreakMaskChain": false,
  "style": {
    "_class": "style",
    "endDecorationType": 0,
    "miterLimit": 10,
    "startDecorationType": 0
  }
}