{
  "orientation" : 0,
  "updateDelay" : 0.3,
  "designModeSelected" : 0,
  "cachedDeviceHeight" : 800,
  "contentScale" : 1,
  "cachedDeviceWidth" : 1280,
  "fullScreen" : false,
  "deviceType" : "custom",
  "sharedPrototype" : true,
  "propertyPanelToggleStates" : {

  },
  "projectId" : "503FA3EF-E1A1-4A1C-AF25-A6EE6FA32BFE",
  "deviceOrientation" : 0,
  "selectedHand" : "",
  "showBezel" : false,
  "foldedCodeRanges" : [
    "{0, 105}",
    "{106, 105}",
    "{212, 463}",
    "{676, 371}",
    "{1048, 303}",
    "{1352, 422}",
    "{1775, 1592}",
    "{3368, 1395}",
    "{4764, 1488}",
    "{6253, 749}"
  ],
  "deviceScale" : "fit"
}