<?xml version="1.0" encoding="UTF-8"?>
<svg width="16px" height="16px" viewBox="0 0 16 16" version="1.1" xmlns="http://www.w3.org/2000/svg" xmlns:xlink="http://www.w3.org/1999/xlink">
    <!-- Generator: Sketch 64 (93537) - https://sketch.com -->
    <title>icn/mobile-issue-close</title>
    <desc>Created with Sketch.</desc>
    <g id="icn/mobile-issue-close" stroke="none" stroke-width="1" fill="none" fill-rule="evenodd">
        <path d="M13.7071,4.29289 C14.0976,4.68342 14.0976,5.31658 13.7071,5.70711 L7.70711,11.7071 C7.31658,12.0976 6.68342,12.0976 6.29289,11.7071 L3.29289,8.70711 C2.90237,8.31658 2.90237,7.68342 3.29289,7.29289 C3.68342,6.90237 4.31658,6.90237 4.70711,7.29289 L7,9.58579 L12.2929,4.29289 C12.6834,3.90237 13.3166,3.90237 13.7071,4.29289 Z" id="Path" fill="#000000"></path>
    </g>
</svg>